EESchema Schematic File Version 4
EELAYER 30 0
EELAYER END
$Descr A4 11693 8268
encoding utf-8
Sheet 1 1
Title ""
Date ""
Rev ""
Comp ""
Comment1 ""
Comment2 ""
Comment3 ""
Comment4 ""
$EndDescr
$Comp
L Connector:Conn_01x04_Male J5
U 1 1 5D16AEA5
P 10050 3850
F 0 "J5" H 10022 3732 50  0000 R CNN
F 1 "CONN_PRI" H 10022 3823 50  0000 R CNN
F 2 "Connector_PinHeader_2.54mm:PinHeader_1x04_P2.54mm_Vertical" H 10050 3850 50  0001 C CNN
F 3 "~" H 10050 3850 50  0001 C CNN
	1    10050 3850
	-1   0    0    1   
$EndComp
$Comp
L power:GND #PWR0101
U 1 1 5D16C22A
P 1500 1700
F 0 "#PWR0101" H 1500 1450 50  0001 C CNN
F 1 "GND" H 1505 1527 50  0000 C CNN
F 2 "" H 1500 1700 50  0001 C CNN
F 3 "" H 1500 1700 50  0001 C CNN
	1    1500 1700
	1    0    0    -1  
$EndComp
$Comp
L Device:C C5
U 1 1 5D16E5DA
P 3550 1550
F 0 "C5" H 3665 1596 50  0000 L CNN
F 1 "100n" H 3665 1505 50  0000 L CNN
F 2 "Capacitor_SMD:C_1206_3216Metric_Pad1.42x1.75mm_HandSolder" H 3588 1400 50  0001 C CNN
F 3 "~" H 3550 1550 50  0001 C CNN
	1    3550 1550
	1    0    0    -1  
$EndComp
Wire Wire Line
	3550 1300 3550 1400
$Comp
L power:GND #PWR0103
U 1 1 5D16F1CE
P 3550 1700
F 0 "#PWR0103" H 3550 1450 50  0001 C CNN
F 1 "GND" H 3555 1527 50  0000 C CNN
F 2 "" H 3550 1700 50  0001 C CNN
F 3 "" H 3550 1700 50  0001 C CNN
	1    3550 1700
	1    0    0    -1  
$EndComp
$Comp
L TSFW_Driver-rescue:UC3843_DIP8-Regulator_Controller U1
U 1 1 5D170D5B
P 3750 4550
F 0 "U1" H 3750 5131 50  0000 C CNN
F 1 "UC3843_DIP8" H 3750 5040 50  0000 C CNN
F 2 "Package_DIP:DIP-8_W7.62mm" H 3750 4050 50  0001 C CNN
F 3 "http://www.ti.com/lit/ds/symlink/uc3842.pdf" H 3750 4550 50  0001 C CNN
	1    3750 4550
	1    0    0    -1  
$EndComp
$Comp
L Device:R R3
U 1 1 5D176DFB
P 4500 4350
F 0 "R3" V 4293 4350 50  0000 C CNN
F 1 "10" V 4384 4350 50  0000 C CNN
F 2 "Resistor_THT:R_Axial_DIN0204_L3.6mm_D1.6mm_P5.08mm_Horizontal" V 4430 4350 50  0001 C CNN
F 3 "~" H 4500 4350 50  0001 C CNN
	1    4500 4350
	0    1    1    0   
$EndComp
$Comp
L power:GND #PWR0104
U 1 1 5D179144
P 3750 4950
F 0 "#PWR0104" H 3750 4700 50  0001 C CNN
F 1 "GND" H 3755 4777 50  0000 C CNN
F 2 "" H 3750 4950 50  0001 C CNN
F 3 "" H 3750 4950 50  0001 C CNN
	1    3750 4950
	1    0    0    -1  
$EndComp
Wire Wire Line
	4400 4750 4250 4750
$Comp
L Device:D D3
U 1 1 5D17A66E
P 7950 3000
F 0 "D3" H 7950 2784 50  0000 C CNN
F 1 "D" H 7950 2875 50  0000 C CNN
F 2 "Diode_THT:D_T-1_P5.08mm_Horizontal" H 7950 3000 50  0001 C CNN
F 3 "~" H 7950 3000 50  0001 C CNN
	1    7950 3000
	-1   0    0    1   
$EndComp
$Comp
L Device:R R7
U 1 1 5D17AF10
P 8900 3000
F 0 "R7" V 8693 3000 50  0000 C CNN
F 1 "22" V 8784 3000 50  0000 C CNN
F 2 "Resistor_SMD:R_1206_3216Metric_Pad1.42x1.75mm_HandSolder" V 8830 3000 50  0001 C CNN
F 3 "~" H 8900 3000 50  0001 C CNN
	1    8900 3000
	0    1    1    0   
$EndComp
$Comp
L Device:D_Zener D5
U 1 1 5D17BD52
P 9200 3250
F 0 "D5" V 9154 3329 50  0000 L CNN
F 1 "18V" V 9245 3329 50  0000 L CNN
F 2 "Diode_THT:D_T-1_P5.08mm_Horizontal" H 9200 3250 50  0001 C CNN
F 3 "~" H 9200 3250 50  0001 C CNN
	1    9200 3250
	0    1    1    0   
$EndComp
$Comp
L Device:R R9
U 1 1 5D17C6F3
P 9500 3250
F 0 "R9" H 9430 3204 50  0000 R CNN
F 1 "10k" H 9430 3295 50  0000 R CNN
F 2 "Resistor_SMD:R_1206_3216Metric_Pad1.42x1.75mm_HandSolder" V 9430 3250 50  0001 C CNN
F 3 "~" H 9500 3250 50  0001 C CNN
	1    9500 3250
	-1   0    0    1   
$EndComp
Wire Wire Line
	9050 3000 9200 3000
Wire Wire Line
	9200 3000 9200 3100
Wire Wire Line
	9200 3000 9500 3000
Wire Wire Line
	9500 3000 9500 3100
Connection ~ 9200 3000
Wire Wire Line
	9200 3550 9200 3400
Wire Wire Line
	9200 3550 9500 3550
Wire Wire Line
	9500 3550 9500 3400
Wire Wire Line
	9750 3850 9850 3850
Wire Wire Line
	9500 3550 9750 3550
Wire Wire Line
	9750 3550 9750 3750
Wire Wire Line
	9750 3750 9850 3750
Connection ~ 9500 3550
Wire Wire Line
	9500 3000 9850 3000
Wire Wire Line
	9850 3000 9850 3650
Connection ~ 9500 3000
Wire Wire Line
	1500 1300 2800 1300
Wire Wire Line
	4350 4350 4250 4350
$Comp
L Transistor_BJT:BC557 Q2
U 1 1 5D197B9E
P 8450 3300
F 0 "Q2" H 8641 3254 50  0000 L CNN
F 1 "BC557" H 8641 3345 50  0000 L CNN
F 2 "Package_TO_SOT_THT:TO-92_Inline_Wide" H 8650 3225 50  0001 L CIN
F 3 "http://www.fairchildsemi.com/ds/BC/BC557.pdf" H 8450 3300 50  0001 L CNN
	1    8450 3300
	1    0    0    1   
$EndComp
$Comp
L Device:R R5
U 1 1 5D198831
P 8000 3300
F 0 "R5" V 7793 3300 50  0000 C CNN
F 1 "1k" V 7884 3300 50  0000 C CNN
F 2 "Resistor_SMD:R_1206_3216Metric_Pad1.42x1.75mm_HandSolder" V 7930 3300 50  0001 C CNN
F 3 "~" H 8000 3300 50  0001 C CNN
	1    8000 3300
	0    1    1    0   
$EndComp
Wire Wire Line
	8150 3300 8250 3300
Wire Wire Line
	7850 3300 7750 3300
Wire Wire Line
	7750 3300 7750 3000
Connection ~ 7750 3000
Wire Wire Line
	7750 3000 7800 3000
Wire Wire Line
	8550 3100 8550 3000
Wire Wire Line
	8100 3000 8550 3000
Wire Wire Line
	8750 3000 8550 3000
Connection ~ 8550 3000
Wire Wire Line
	8550 3500 8550 3550
Wire Wire Line
	8550 3550 9200 3550
Connection ~ 9200 3550
Connection ~ 8550 3550
$Comp
L Device:D D4
U 1 1 5D1A4449
P 7950 4250
F 0 "D4" H 7950 4034 50  0000 C CNN
F 1 "D" H 7950 4125 50  0000 C CNN
F 2 "Diode_THT:D_T-1_P5.08mm_Horizontal" H 7950 4250 50  0001 C CNN
F 3 "~" H 7950 4250 50  0001 C CNN
	1    7950 4250
	-1   0    0    1   
$EndComp
$Comp
L Device:R R8
U 1 1 5D1A444F
P 8900 4250
F 0 "R8" V 8693 4250 50  0000 C CNN
F 1 "22" V 8784 4250 50  0000 C CNN
F 2 "Resistor_SMD:R_1206_3216Metric_Pad1.42x1.75mm_HandSolder" V 8830 4250 50  0001 C CNN
F 3 "~" H 8900 4250 50  0001 C CNN
	1    8900 4250
	0    1    1    0   
$EndComp
$Comp
L Device:D_Zener D6
U 1 1 5D1A4455
P 9200 4500
F 0 "D6" V 9154 4579 50  0000 L CNN
F 1 "18V" V 9245 4579 50  0000 L CNN
F 2 "Diode_THT:D_T-1_P5.08mm_Horizontal" H 9200 4500 50  0001 C CNN
F 3 "~" H 9200 4500 50  0001 C CNN
	1    9200 4500
	0    1    1    0   
$EndComp
$Comp
L Device:R R10
U 1 1 5D1A445B
P 9500 4500
F 0 "R10" H 9430 4454 50  0000 R CNN
F 1 "10k" H 9430 4545 50  0000 R CNN
F 2 "Resistor_SMD:R_1206_3216Metric_Pad1.42x1.75mm_HandSolder" V 9430 4500 50  0001 C CNN
F 3 "~" H 9500 4500 50  0001 C CNN
	1    9500 4500
	-1   0    0    1   
$EndComp
Wire Wire Line
	9050 4250 9200 4250
Wire Wire Line
	9200 4250 9200 4350
Wire Wire Line
	9200 4250 9500 4250
Wire Wire Line
	9500 4250 9500 4350
Connection ~ 9200 4250
Wire Wire Line
	9200 4800 9200 4650
Wire Wire Line
	9200 4800 9500 4800
Wire Wire Line
	9500 4800 9500 4650
Connection ~ 9500 4800
$Comp
L Transistor_BJT:BC557 Q3
U 1 1 5D1A446F
P 8450 4550
F 0 "Q3" H 8641 4504 50  0000 L CNN
F 1 "BC557" H 8641 4595 50  0000 L CNN
F 2 "Package_TO_SOT_THT:TO-92_Inline_Wide" H 8650 4475 50  0001 L CIN
F 3 "http://www.fairchildsemi.com/ds/BC/BC557.pdf" H 8450 4550 50  0001 L CNN
	1    8450 4550
	1    0    0    1   
$EndComp
$Comp
L Device:R R6
U 1 1 5D1A4475
P 8000 4550
F 0 "R6" V 7793 4550 50  0000 C CNN
F 1 "1k" V 7884 4550 50  0000 C CNN
F 2 "Resistor_SMD:R_1206_3216Metric_Pad1.42x1.75mm_HandSolder" V 7930 4550 50  0001 C CNN
F 3 "~" H 8000 4550 50  0001 C CNN
	1    8000 4550
	0    1    1    0   
$EndComp
Wire Wire Line
	8150 4550 8250 4550
Wire Wire Line
	7850 4550 7750 4550
Wire Wire Line
	7750 4550 7750 4250
Connection ~ 7750 4250
Wire Wire Line
	7750 4250 7800 4250
Wire Wire Line
	8550 4350 8550 4250
Wire Wire Line
	8100 4250 8550 4250
Wire Wire Line
	8750 4250 8550 4250
Connection ~ 8550 4250
Wire Wire Line
	8550 4750 8550 4800
Wire Wire Line
	8550 4800 9200 4800
Connection ~ 9200 4800
Connection ~ 8550 4800
Wire Wire Line
	9500 4250 9750 4250
Wire Wire Line
	9750 3850 9750 4250
Connection ~ 9500 4250
Wire Wire Line
	9850 3950 9850 4800
Wire Wire Line
	9500 4800 9850 4800
$Comp
L Device:R R2
U 1 1 5D1A8A34
P 2950 4850
F 0 "R2" H 3020 4896 50  0000 L CNN
F 1 "10k" H 3020 4805 50  0000 L CNN
F 2 "Resistor_SMD:R_1206_3216Metric_Pad1.42x1.75mm_HandSolder" V 2880 4850 50  0001 C CNN
F 3 "~" H 2950 4850 50  0001 C CNN
	1    2950 4850
	1    0    0    -1  
$EndComp
$Comp
L Device:C C3
U 1 1 5D1A9150
P 2950 5350
F 0 "C3" H 3065 5396 50  0000 L CNN
F 1 "3.3n" H 3065 5305 50  0000 L CNN
F 2 "Capacitor_THT:C_Rect_L7.0mm_W2.0mm_P5.00mm" H 2988 5200 50  0001 C CNN
F 3 "~" H 2950 5350 50  0001 C CNN
	1    2950 5350
	1    0    0    -1  
$EndComp
Wire Wire Line
	2950 5200 2950 5100
Wire Wire Line
	2950 4700 2950 4650
Wire Wire Line
	2950 4650 3250 4650
Wire Wire Line
	3250 4750 3200 4750
Wire Wire Line
	3200 4750 3200 5100
Wire Wire Line
	3200 5100 2950 5100
Connection ~ 2950 5100
Wire Wire Line
	2950 5100 2950 5000
$Comp
L power:GND #PWR0108
U 1 1 5D1AE09C
P 2950 5500
F 0 "#PWR0108" H 2950 5250 50  0001 C CNN
F 1 "GND" H 2955 5327 50  0000 C CNN
F 2 "" H 2950 5500 50  0001 C CNN
F 3 "" H 2950 5500 50  0001 C CNN
	1    2950 5500
	1    0    0    -1  
$EndComp
$Comp
L Device:C C1
U 1 1 5D1AEA1C
P 2600 4850
F 0 "C1" H 2715 4896 50  0000 L CNN
F 1 "100n" H 2715 4805 50  0000 L CNN
F 2 "Capacitor_THT:C_Disc_D4.3mm_W1.9mm_P5.00mm" H 2638 4700 50  0001 C CNN
F 3 "~" H 2600 4850 50  0001 C CNN
	1    2600 4850
	1    0    0    -1  
$EndComp
Wire Wire Line
	2600 4700 2600 4650
Wire Wire Line
	2600 4650 2950 4650
Connection ~ 2950 4650
$Comp
L power:GND #PWR0109
U 1 1 5D1B0EAF
P 2600 5000
F 0 "#PWR0109" H 2600 4750 50  0001 C CNN
F 1 "GND" H 2605 4827 50  0000 C CNN
F 2 "" H 2600 5000 50  0001 C CNN
F 3 "" H 2600 5000 50  0001 C CNN
	1    2600 5000
	1    0    0    -1  
$EndComp
Wire Wire Line
	3750 2200 2800 2200
Wire Wire Line
	2800 2200 2800 1300
Connection ~ 2800 1300
Wire Wire Line
	3250 4450 2600 4450
Wire Wire Line
	2600 4450 2600 4350
Connection ~ 2600 4650
$Comp
L Device:C_Small C2
U 1 1 5D1BAC33
P 2950 4350
F 0 "C2" V 2721 4350 50  0000 C CNN
F 1 "10n" V 2812 4350 50  0000 C CNN
F 2 "Capacitor_THT:C_Rect_L7.0mm_W2.0mm_P5.00mm" H 2950 4350 50  0001 C CNN
F 3 "~" H 2950 4350 50  0001 C CNN
	1    2950 4350
	0    1    1    0   
$EndComp
$Comp
L Device:R R1
U 1 1 5D1BB3AD
P 2950 4000
F 0 "R1" V 2743 4000 50  0000 C CNN
F 1 "10k" V 2834 4000 50  0000 C CNN
F 2 "Resistor_SMD:R_1206_3216Metric_Pad1.42x1.75mm_HandSolder" V 2880 4000 50  0001 C CNN
F 3 "~" H 2950 4000 50  0001 C CNN
	1    2950 4000
	0    1    1    0   
$EndComp
Wire Wire Line
	3100 4000 3200 4000
Wire Wire Line
	3200 4000 3200 4350
Wire Wire Line
	3200 4350 3250 4350
Wire Wire Line
	3200 4350 3050 4350
Connection ~ 3200 4350
Wire Wire Line
	2800 4000 2600 4000
Wire Wire Line
	2850 4350 2600 4350
Connection ~ 2600 4350
Wire Wire Line
	2600 4350 2600 4000
Wire Wire Line
	1500 1500 2300 1500
Wire Wire Line
	2300 1500 2300 4450
Wire Wire Line
	2300 4450 2600 4450
Connection ~ 2600 4450
Wire Wire Line
	2050 4650 2050 1400
Wire Wire Line
	2050 1400 1500 1400
Wire Wire Line
	2050 4650 2600 4650
$Comp
L Device:C C7
U 1 1 5D17F7AE
P 7000 3000
F 0 "C7" H 7115 3046 50  0000 L CNN
F 1 "100n" H 7115 2955 50  0000 L CNN
F 2 "Capacitor_SMD:C_1206_3216Metric_Pad1.42x1.75mm_HandSolder" H 7038 2850 50  0001 C CNN
F 3 "~" H 7000 3000 50  0001 C CNN
	1    7000 3000
	0    1    1    0   
$EndComp
$Comp
L Device:C C8
U 1 1 5D18107F
P 7000 4250
F 0 "C8" H 7115 4296 50  0000 L CNN
F 1 "100n" H 7115 4205 50  0000 L CNN
F 2 "Capacitor_SMD:C_1206_3216Metric_Pad1.42x1.75mm_HandSolder" H 7038 4100 50  0001 C CNN
F 3 "~" H 7000 4250 50  0001 C CNN
	1    7000 4250
	0    1    1    0   
$EndComp
Wire Wire Line
	6700 4250 6850 4250
Wire Wire Line
	6700 3700 6500 3700
Wire Wire Line
	6700 3700 6700 4250
Wire Wire Line
	6600 3000 6850 3000
$Comp
L Transistor_FET:2N7000 Q1
U 1 1 5D4015B5
P 5600 4350
F 0 "Q1" H 5806 4396 50  0000 L CNN
F 1 "2N7000" H 5806 4305 50  0000 L CNN
F 2 "Package_TO_SOT_THT:TO-92_Inline_Wide" H 5800 4275 50  0001 L CIN
F 3 "https://www.fairchildsemi.com/datasheets/2N/2N7000.pdf" H 5600 4350 50  0001 L CNN
	1    5600 4350
	1    0    0    -1  
$EndComp
$Comp
L power:GND #PWR0105
U 1 1 5D409C06
P 5700 4550
F 0 "#PWR0105" H 5700 4300 50  0001 C CNN
F 1 "GND" H 5705 4377 50  0000 C CNN
F 2 "" H 5700 4550 50  0001 C CNN
F 3 "" H 5700 4550 50  0001 C CNN
	1    5700 4550
	1    0    0    -1  
$EndComp
$Comp
L Connector:Conn_01x05_Male J1
U 1 1 5D424B66
P 1300 1500
F 0 "J1" H 1408 1881 50  0000 C CNN
F 1 "CONN_SEC" H 1408 1790 50  0000 C CNN
F 2 "Connector_PinSocket_2.54mm:PinSocket_1x05_P2.54mm_Vertical" H 1300 1500 50  0001 C CNN
F 3 "~" H 1300 1500 50  0001 C CNN
	1    1300 1500
	1    0    0    -1  
$EndComp
Wire Wire Line
	1900 1600 1900 5800
Wire Wire Line
	1900 5800 4400 5800
Wire Wire Line
	1500 1600 1900 1600
Wire Wire Line
	4400 4750 4400 5800
Wire Wire Line
	3750 2200 3750 3500
$Comp
L Device:D D7
U 1 1 5D411EF4
P 4650 3500
F 0 "D7" H 4650 3284 50  0000 C CNN
F 1 "D" H 4650 3375 50  0000 C CNN
F 2 "Diode_THT:D_T-1_P5.08mm_Horizontal" H 4650 3500 50  0001 C CNN
F 3 "~" H 4650 3500 50  0001 C CNN
	1    4650 3500
	1    0    0    -1  
$EndComp
Wire Wire Line
	5700 3500 4800 3500
Wire Wire Line
	4500 3500 3750 3500
Connection ~ 3750 3500
Wire Wire Line
	3750 3500 3750 4150
Wire Wire Line
	2800 1300 3550 1300
Wire Wire Line
	7150 4250 7750 4250
Wire Wire Line
	6650 4800 8550 4800
$Comp
L Device:C C4
U 1 1 5D4B91CE
P 4800 4350
F 0 "C4" V 5050 4300 50  0000 L CNN
F 1 "1u" V 4950 4300 50  0000 L CNN
F 2 "Capacitor_THT:C_Rect_L7.0mm_W2.0mm_P5.00mm" H 4838 4200 50  0001 C CNN
F 3 "~" H 4800 4350 50  0001 C CNN
	1    4800 4350
	0    1    1    0   
$EndComp
Wire Wire Line
	4950 4350 5050 4350
Connection ~ 5050 4350
Wire Wire Line
	5050 4350 5400 4350
Wire Wire Line
	7150 3000 7750 3000
Wire Wire Line
	6800 3550 8550 3550
$Comp
L My_Library:EE10 TR1
U 1 1 5E9CA5BE
P 6250 3850
F 0 "TR1" H 6250 4265 50  0000 C CNN
F 1 "EE10" H 6250 4174 50  0000 C CNN
F 2 "MyLibrary:EE10" H 6250 4150 50  0001 C CNN
F 3 "" H 6100 3700 50  0001 C CNN
	1    6250 3850
	1    0    0    -1  
$EndComp
Wire Wire Line
	5700 3500 5700 4000
Wire Wire Line
	6000 4000 5700 4000
Connection ~ 5700 4000
Wire Wire Line
	5700 4000 5700 4150
Wire Wire Line
	6000 3700 5050 3700
Wire Wire Line
	5050 3700 5050 4350
Wire Wire Line
	6650 3800 6500 3800
Wire Wire Line
	6650 3800 6650 4800
Wire Wire Line
	6500 3900 6600 3900
Wire Wire Line
	6600 3900 6600 3000
Wire Wire Line
	6500 4000 6800 4000
Wire Wire Line
	6800 4000 6800 3550
$EndSCHEMATC
